DSP/transcript
# vsim -c -do "run -all" DSP_TB 
# Start time: 12:58:26 on Mar 04,2025
# ** Note: (vsim-3813) Design is being optimized due to module recompilation...
# //  Questa Sim-64
# //  Version 2021.1 win64 Jan 19 2021
# //
# //  Copyright 1991-2021 Mentor Graphics Corporation
# //  All Rights Reserved.
# //
# //  QuestaSim and its associated documentation contain trade
# //  secrets and commercial or financial information that are the property of
# //  Mentor Graphics Corporation and are privileged, confidential,
# //  and exempt from disclosure under the Freedom of Information Act,
# //  5 U.S.C. Section 552. Furthermore, this information
# //  is prohibited from disclosure under the Trade Secrets Act,
# //  18 U.S.C. Section 1905.
# //
# Loading sv_std.std
# Loading work.DSP_TB(fast)
# Loading work.DSP(fast)
# run -all
# corect with D=     0 , B=     0 , A=     0 , C=              0 and out_P =               0 = P =              0 
# corect with D= 22115 , B= 89729 , A= 79140 , C=281472905041417 and out_P =      6779664921 = P =     6779664921 
# corect with D=217618 , B=235917 , A= 97037 , C=281473680835685 and out_P =     17276133496 = P =    17276133496 
# corect with D=118077 , B=249101 , A=254721 , C=      992211318 and out_P =     27746576832 = P =    27746576832 
# corect with D=206022 , B=128908 , A= 22509 , C=     2097015289 and out_P =      3735355363 = P =     3735355363 
# corect with D=160375 , B=250538 , A=230597 , C=     1924134885 and out_P =     36229819978 = P =    36229819978 
# corect with D=169678 , B= 56207 , A=185874 , C=     2033215986 and out_P =     44019364476 = P =    44019364476 
# corect with D=141501 , B=151237 , A= 31464 , C=      777537884 and out_P =      1740147500 = P =     1740147500 
# corect with D=231178 , B=206437 , A=219181 , C=281473666998883 and out_P =     37150197478 = P =    37150197478 
# corect with D= 52381 , B=  8480 , A=205440 , C=     1433945514 and out_P =     13937229354 = P =    13937229354 
# corect with D=251475 , B=243731 , A= 16022 , C=281472942225421 and out_P =      1699634129 = P =     1699634129 
# corect with D=147118 , B=142037 , A=253291 , C=281472847530498 and out_P =      4712463043 = P =     4712463043 
# corect with D= 91402 , B= 94927 , A=256285 , C=      293882147 and out_P =     48047209912 = P =    48047209912 
# corect with D=156042 , B= 85052 , A=199370 , C=     2036907506 and out_P =     50103818286 = P =    50103818286 
# corect with D=135817 , B=210136 , A= 45889 , C=     1008792440 and out_P =      4854703641 = P =     4854703641 
# corect with D= 70574 , B=157110 , A= 69099 , C=     1665923526 and out_P =     17398660242 = P =    17398660242 
# corect with D=245361 , B=253226 , A= 66236 , C=281472927242763 and out_P =     13611570655 = P =    13611570655 
# corect with D=144186 , B=152911 , A=147845 , C=281473329160251 and out_P =      3520075880 = P =     3520075880 
# corect with D= 19417 , B=150293 , A=209534 , C=     2027527153 and out_P =     37587542293 = P =    37587542293 
# corect with D=106895 , B=129868 , A=198498 , C=     1335973279 and out_P =     48332955253 = P =    48332955253 
# corect with D=103516 , B= 90295 , A=109048 , C=281474167494303 and out_P =     20325485575 = P =    20325485575 
# corect with D=212688 , B=145289 , A=245851 , C=281473444622921 and out_P =     22028551148 = P =    22028551148 
# corect with D= 98060 , B=261201 , A=180439 , C=     1260466070 and out_P =     18784160433 = P =    18784160433 
# corect with D=191805 , B=257480 , A= 52930 , C=281473827625591 and out_P =      8756288065 = P =     8756288065 
# corect with D=124729 , B= 65662 , A= 56082 , C=      921010541 and out_P =     11598518603 = P =    11598518603 
# corect with D= 34936 , B=259795 , A=167711 , C=     1121529733 and out_P =      6586728090 = P =     6586728090 
# corect with D= 44842 , B=215881 , A=153947 , C=281473365225023 and out_P =     38526038048 = P =    38526038048 
# corect with D=258716 , B=211078 , A= 90968 , C=281474022116494 and out_P =     17934911038 = P =    17934911038 
# corect with D=242851 , B=113702 , A=104954 , C=      966137715 and out_P =     10874739901 = P =    10874739901 
# corect with D= 68932 , B=168627 , A=108591 , C=281473631934047 and out_P =     24451992760 = P =    24451992760 
# corect with D= 56154 , B=210635 , A= 65015 , C=281474759203558 and out_P =        84487577 = P =       84487577 
# corect with D=243301 , B=189165 , A=246057 , C=281474663410906 and out_P =     41595620604 = P =    41595620604 
# corect with D=130884 , B=169183 , A=189109 , C=     1022433657 and out_P =      8194014264 = P =     8194014264 
# corect with D=249614 , B= 68394 , A=  3280 , C=     1442229675 and out_P =      1625463595 = P =     1625463595 
# corect with D= 66243 , B=179354 , A=110044 , C=281474957800189 and out_P =     27007565801 = P =    27007565801 
# corect with D= 78858 , B=125262 , A=191830 , C=281473699116647 and out_P =     37878745591 = P =    37878745591 
# corect with D=246968 , B=166456 , A=244150 , C=     1020364665 and out_P =     37955376665 = P =    37955376665 
# corect with D=248409 , B=155027 , A= 49044 , C=281472866921476 and out_P =      4819735668 = P =     4819735668 
# corect with D=  9837 , B= 56909 , A=223707 , C=     1823520729 and out_P =     16755068151 = P =    16755068151 
# corect with D=225685 , B=215498 , A=123510 , C=     1528245686 and out_P =     23641352576 = P =    23641352576 
# corect with D=  1897 , B= 39684 , A=203334 , C=     2077385207 and out_P =     10532216261 = P =    10532216261 
# corect with D=  1069 , B=101768 , A=178868 , C=      343726376 and out_P =     18737974892 = P =    18737974892 
# corect with D= 83228 , B= 39982 , A= 78023 , C=281472904193032 and out_P =      7540696206 = P =     7540696206 
# corect with D= 92038 , B=132905 , A=239357 , C=281473067749404 and out_P =     51932720399 = P =    51932720399 
# corect with D=115824 , B=247357 , A=  2266 , C=      860792678 and out_P =      1089742520 = P =     1089742520 
# corect with D=227834 , B=104890 , A= 66675 , C=      792376158 and out_P =      5498297658 = P =     5498297658 
# corect with D=221495 , B= 63002 , A=132565 , C=281474388459705 and out_P =      2374974494 = P =     2374974494 
# corect with D=137910 , B= 74176 , A=210838 , C=      321232678 and out_P =     45037020746 = P =    45037020746 
# corect with D=262008 , B=200668 , A= 99197 , C=     1130452870 and out_P =     21022625674 = P =    21022625674 
# corect with D= 76665 , B= 98523 , A=170878 , C=281474570106575 and out_P =     29529170983 = P =    29529170983 
# corect with D= 96417 , B= 61025 , A= 58618 , C=      194251031 and out_P =      9423186187 = P =     9423186187 
# corect with D= 34869 , B=235088 , A=233862 , C=     2056018421 and out_P =      3883182227 = P =     3883182227 
# corect with D=111768 , B= 95681 , A=166441 , C=281474488431813 and out_P =     34039740166 = P =    34039740166 
# corect with D=  5770 , B= 17011 , A=162635 , C=281474811225836 and out_P =      3539503115 = P =     3539503115 
# corect with D=167073 , B=229544 , A= 53582 , C=     1419705769 and out_P =      8625038055 = P =     8625038055 
# corect with D=242986 , B= 26342 , A=243982 , C=281474168701087 and out_P =       944757119 = P =      944757119 
# corect with D=124472 , B=128141 , A=138538 , C=     1333133214 and out_P =     36329633008 = P =    36329633008 
# corect with D=213267 , B= 58312 , A=239737 , C=     1696810442 and out_P =      3958729037 = P =     3958729037 
# corect with D=105914 , B=241351 , A= 51563 , C=     1527504310 and out_P =      5916598433 = P =     5916598433 
# corect with D=170676 , B=169401 , A=175044 , C=     1227871122 and out_P =     14869575174 = P =    14869575174 
# corect with D=234738 , B=233606 , A=211839 , C=     2104358394 and out_P =     45785560194 = P =    45785560194 
# corect with D=107748 , B=155325 , A= 74034 , C=     1112526212 and out_P =      1181303798 = P =     1181303798 
# corect with D=108942 , B= 31145 , A=249802 , C=281474181212321 and out_P =     34198514439 = P =    34198514439 
# corect with D= 15817 , B= 73227 , A=223995 , C=281474834272495 and out_P =     19802972619 = P =    19802972619 
# corect with D=114539 , B= 84085 , A= 58678 , C=281474035635855 and out_P =     10713784271 = P =    10713784271 
# corect with D=148882 , B=242862 , A=124808 , C=     1307804059 and out_P =     17482920859 = P =    17482920859 
# corect with D=110786 , B= 57389 , A= 57128 , C=      632774475 and out_P =     10240275875 = P =    10240275875 
# corect with D=236824 , B=197901 , A= 63006 , C=     1987706348 and out_P =     12861344834 = P =    12861344834 
# corect with D=222267 , B=138374 , A=138193 , C=281473378690113 and out_P =     12013575378 = P =    12013575378 
# corect with D=  8795 , B=256339 , A= 63960 , C=281473552310870 and out_P = 281473743551270 = P =281473743551270 
# corect with D= 46296 , B=254468 , A=195298 , C=      967574387 and out_P =      8509983147 = P =     8509983147 
# corect with D=243429 , B=214200 , A=150802 , C=281473307447865 and out_P =     27810266179 = P =    27810266179 
# corect with D=230856 , B= 69419 , A=122017 , C=     1083202945 and out_P =      5735833172 = P =     5735833172 
# corect with D=145924 , B=129441 , A= 87335 , C=281473090088479 and out_P = 281474244744514 = P =281474244744514 
# corect with D=111634 , B= 32918 , A= 74584 , C=      175018772 and out_P =     10956285140 = P =    10956285140 
# corect with D=233197 , B= 58033 , A=159894 , C=      717411669 and out_P =      5368088553 = P =     5368088553 
# corect with D= 74279 , B= 72693 , A=207659 , C=     1454637997 and out_P =     31974696545 = P =    31974696545 
# corect with D=233657 , B= 58535 , A=130948 , C=281474772739815 and out_P =      3730754663 = P =     3730754663 
# corect with D=242001 , B=113627 , A=153161 , C=     1689915337 and out_P =     16008018261 = P =    16008018261 
# corect with D=139333 , B=187690 , A= 24225 , C=     2099922426 and out_P =      3671616201 = P =     3671616201 
# corect with D=212222 , B= 82556 , A= 66947 , C=281473790121074 and out_P =       998158816 = P =      998158816 
# corect with D=205296 , B=240239 , A=127592 , C=     1128664454 and out_P =     24527888926 = P =    24527888926 
# corect with D=109046 , B=168256 , A=104248 , C=281473165391400 and out_P = 281474745582584 = P =281474745582584 
# corect with D=160057 , B= 12736 , A=203461 , C=      979525492 and out_P =     36136162065 = P =    36136162065 
# corect with D= 54114 , B= 34620 , A=158384 , C=      354521898 and out_P =     14408567754 = P =    14408567754 
# corect with D=257603 , B= 85729 , A= 13589 , C=      199400727 and out_P =      1302664459 = P =     1302664459 
# corect with D=171457 , B=132230 , A=123849 , C=      311937829 and out_P =      5456996836 = P =     5456996836 
# corect with D=228140 , B=254554 , A=107149 , C=       64366343 and out_P =     23696078293 = P =    23696078293 
# corect with D= 58806 , B=124529 , A=154892 , C=281473330543675 and out_P =     26750957839 = P =    26750957839 
# corect with D= 63317 , B= 52894 , A=246519 , C=281473608865884 and out_P =     27280374737 = P =    27280374737 
# corect with D=101556 , B=201376 , A=145952 , C=      962595186 and out_P =      6915685362 = P =     6915685362 
# corect with D= 17017 , B= 61453 , A=194013 , C=      632330571 and out_P =     15856530681 = P =    15856530681 
# corect with D=160655 , B= 25853 , A=252574 , C=281473867371131 and out_P =     45997732067 = P =    45997732067 
# corect with D= 81329 , B= 76259 , A=236035 , C=      244466461 and out_P =     37440750041 = P =    37440750041 
# corect with D= 96493 , B= 48277 , A=106308 , C=281474710189280 and out_P =     15123687784 = P =    15123687784 
# corect with D=246866 , B=154616 , A=136530 , C=     1188870029 and out_P =     20212687169 = P =    20212687169 
# corect with D= 32144 , B=195910 , A=124804 , C=281474007470732 and out_P =     27492811492 = P =    27492811492 
# corect with D=244906 , B= 90474 , A=180503 , C=     1115379588 and out_P =     14334697296 = P =    14334697296 
# corect with D= 90251 , B=131680 , A=200572 , C=     1565150650 and out_P =     46078295182 = P =    46078295182 
# corect with D= 66722 , B=204325 , A=130726 , C=      419791666 and out_P =      1583645244 = P =     1583645244 
# corect with D=131915 , B= 45076 , A=228425 , C=281473345765437 and out_P =     38798223956 = P =    38798223956 
# corect with D=131915 , B= 45076 , A=228425 , C=281473345765437 and out_P =               0 = P =              0 
#                  816:Num of Correct = 102 Num of Error= 0
# ** Note: $stop    : DSP_TB.sv(46)
#    Time: 816 ns  Iteration: 1  Instance: /DSP_TB
# Break at DSP_TB.sv line 46
# Stopped at DSP_TB.sv line 46
